<?xml version="1.0" encoding="UTF-8" standalone="no"?>
<svg
   xmlns:dc="http://purl.org/dc/elements/1.1/"
   xmlns:cc="http://creativecommons.org/ns#"
   xmlns:rdf="http://www.w3.org/1999/02/22-rdf-syntax-ns#"
   xmlns:svg="http://www.w3.org/2000/svg"
   xmlns="http://www.w3.org/2000/svg"
   xmlns:sodipodi="http://sodipodi.sourceforge.net/DTD/sodipodi-0.dtd"
   xmlns:inkscape="http://www.inkscape.org/namespaces/inkscape"
   width="60.123817mm"
   height="41.695068mm"
   viewBox="0 0 60.123818 41.695066"
   version="1.1"
   id="svg8"
   inkscape:version="1.0.2 (e86c870879, 2021-01-15, custom)"
   sodipodi:docname="fish.svg"
   inkscape:export-filename="fish.png"
   inkscape:export-xdpi="119.91"
   inkscape:export-ydpi="119.91">
  <defs
     id="defs2">
    <inkscape:path-effect
       effect="spiro"
       id="path-effect846"
       is_visible="true"
       lpeversion="1" />
    <inkscape:path-effect
       effect="spiro"
       id="path-effect840"
       is_visible="true"
       lpeversion="1" />
    <inkscape:path-effect
       effect="spiro"
       id="path-effect847"
       is_visible="true"
       lpeversion="1" />
    <inkscape:path-effect
       effect="spiro"
       id="path-effect843"
       is_visible="true"
       lpeversion="1" />
    <inkscape:path-effect
       effect="spiro"
       id="path-effect835"
       is_visible="true"
       lpeversion="1" />
  </defs>
  <sodipodi:namedview
     id="base"
     pagecolor="#ffffff"
     bordercolor="#666666"
     borderopacity="1.0"
     inkscape:pageopacity="0.0"
     inkscape:pageshadow="2"
     inkscape:zoom="0.86427753"
     inkscape:cx="-367.9256"
     inkscape:cy="221.5379"
     inkscape:document-units="mm"
     inkscape:current-layer="layer1"
     inkscape:document-rotation="0"
     showgrid="false"
     inkscape:window-width="1280"
     inkscape:window-height="1375"
     inkscape:window-x="1280"
     inkscape:window-y="30"
     inkscape:window-maximized="1" />
  <metadata
     id="metadata5">
    <rdf:RDF>
      <cc:Work
         rdf:about="">
        <dc:format>image/svg+xml</dc:format>
        <dc:type
           rdf:resource="http://purl.org/dc/dcmitype/StillImage" />
        <dc:title></dc:title>
      </cc:Work>
    </rdf:RDF>
  </metadata>
  <g
     inkscape:label="Layer 1"
     inkscape:groupmode="layer"
     id="layer1"
     transform="translate(-187.14972,-158.11871)">
    <path
       style="fill:#cccccc;stroke:#000000;stroke-width:2;stroke-linecap:square"
       d="m 202.21002,172.87154 c 1.45081,-4.82844 4.86006,-9.0372 9.28208,-11.45885 3.88893,-2.12971 8.56409,-2.86912 12.87223,-1.82063 3.19177,0.7768 6.09462,2.48217 8.66951,4.52196 2.5749,2.03979 4.85665,4.41897 7.18029,6.74094 1.60443,1.60327 3.2491,3.20304 4.44614,5.12964 0.59851,0.9633 1.08037,2.00526 1.35702,3.10509 0.27665,1.09983 0.34435,2.25949 0.127,3.37256 -0.30578,1.56596 -1.16324,2.98388 -2.2351,4.16577 -1.07186,1.18189 -2.35599,2.14937 -3.65327,3.07824 -4.30721,3.08401 -8.9608,5.87216 -14.12832,7.03828 -3.53045,0.79669 -7.25401,0.80403 -10.75265,-0.12243 -5.58427,-1.47876 -10.47406,-5.40333 -13.12628,-10.53524 l -12.90145,10.62229 c 2.21742,-6.07619 3.37868,-12.53622 3.41623,-19.00427 0.0348,-5.98971 -0.89281,-11.98398 -2.73636,-17.68303 z"
       id="path838"
       inkscape:path-effect="#path-effect840"
       inkscape:original-d="m 202.21002,172.87154 c 0,0 6.18825,-7.63902 9.28208,-11.45885 3.09383,-3.81983 8.58167,-1.21354 12.87223,-1.82063 4.29055,-0.60708 12.01544,6.46764 15.8498,11.2629 3.83437,4.79525 2.50491,8.77957 5.93016,11.60729 3.42524,2.82772 -4.41969,3.59774 -5.88837,7.24401 -1.46868,3.64627 -8.9244,5.92421 -14.12832,7.03828 -5.20393,1.11407 -7.16824,-0.0814 -10.75265,-0.12243 -3.5844,-0.041 -13.12628,-10.53524 -13.12628,-10.53524 l -12.90145,10.62229 c 0,0 2.27768,-12.6693 3.41623,-19.00427 1.13855,-6.33496 -2.73636,-17.68303 -2.73636,-17.68303 z"
       sodipodi:nodetypes="csssssscccscc" />
    <circle
       style="fill:#000000;stroke:#000000;stroke-width:2;stroke-linecap:square"
       id="path842"
       cx="231.31229"
       cy="175.24342"
       r="3.3682401" />
    <path
       style="fill:none;stroke:#000000;stroke-width:2;stroke-linecap:square"
       d="m 224.40789,183.13924 c -1.81376,1.97346 -4.13873,3.47305 -6.68456,4.3115 -2.36123,0.77765 -4.90757,0.98674 -7.36403,0.60468 1.47607,-1.14237 2.66333,-2.65494 3.42236,-4.36013 0.80307,-1.80412 1.12389,-3.82025 0.92048,-5.78453"
       id="path844"
       inkscape:path-effect="#path-effect846"
       inkscape:original-d="m 224.40789,183.13924 c -2.24986,1.4484 -4.45611,2.8746 -6.68456,4.3115 -2.22845,1.43691 -7.36403,0.60468 -7.36403,0.60468 0,0 2.28184,-2.90649 3.42236,-4.36013 1.14053,-1.45365 0.92048,-5.78453 0.92048,-5.78453" />
  </g>
</svg>
