<?xml version="1.0" encoding="UTF-8" standalone="no"?>
<svg
   xmlns:dc="http://purl.org/dc/elements/1.1/"
   xmlns:cc="http://creativecommons.org/ns#"
   xmlns:rdf="http://www.w3.org/1999/02/22-rdf-syntax-ns#"
   xmlns:svg="http://www.w3.org/2000/svg"
   xmlns="http://www.w3.org/2000/svg"
   xmlns:sodipodi="http://sodipodi.sourceforge.net/DTD/sodipodi-0.dtd"
   xmlns:inkscape="http://www.inkscape.org/namespaces/inkscape"
   width="412.01712mm"
   height="282.45197mm"
   viewBox="0 0 412.01712 282.45195"
   version="1.1"
   id="svg8"
   inkscape:version="1.0.2 (e86c870879, 2021-01-15, custom)"
   sodipodi:docname="hospital.svg"
   inkscape:export-filename="hospital.png"
   inkscape:export-xdpi="119.91"
   inkscape:export-ydpi="119.91">
  <defs
     id="defs2">
    <inkscape:path-effect
       effect="spiro"
       id="path-effect876"
       is_visible="true"
       lpeversion="1" />
    <inkscape:path-effect
       effect="spiro"
       id="path-effect872"
       is_visible="true"
       lpeversion="1" />
    <inkscape:path-effect
       effect="spiro"
       id="path-effect868"
       is_visible="true"
       lpeversion="1" />
    <inkscape:path-effect
       effect="spiro"
       id="path-effect860"
       is_visible="true"
       lpeversion="1" />
    <inkscape:path-effect
       effect="spiro"
       id="path-effect846"
       is_visible="true"
       lpeversion="1" />
    <inkscape:path-effect
       effect="spiro"
       id="path-effect840"
       is_visible="true"
       lpeversion="1" />
    <inkscape:path-effect
       effect="spiro"
       id="path-effect847"
       is_visible="true"
       lpeversion="1" />
    <inkscape:path-effect
       effect="spiro"
       id="path-effect843"
       is_visible="true"
       lpeversion="1" />
    <inkscape:path-effect
       effect="spiro"
       id="path-effect835"
       is_visible="true"
       lpeversion="1" />
  </defs>
  <sodipodi:namedview
     id="base"
     pagecolor="#ffffff"
     bordercolor="#666666"
     borderopacity="1.0"
     inkscape:pageopacity="0.0"
     inkscape:pageshadow="2"
     inkscape:zoom="0.31849414"
     inkscape:cx="987.94151"
     inkscape:cy="600.2612"
     inkscape:document-units="mm"
     inkscape:current-layer="layer1"
     inkscape:document-rotation="0"
     showgrid="false"
     inkscape:window-width="1107"
     inkscape:window-height="1015"
     inkscape:window-x="1133"
     inkscape:window-y="30"
     inkscape:window-maximized="1"
     inkscape:snap-global="false" />
  <metadata
     id="metadata5">
    <rdf:RDF>
      <cc:Work
         rdf:about="">
        <dc:format>image/svg+xml</dc:format>
        <dc:type
           rdf:resource="http://purl.org/dc/dcmitype/StillImage" />
        <dc:title></dc:title>
      </cc:Work>
    </rdf:RDF>
  </metadata>
  <g
     inkscape:label="Layer 1"
     inkscape:groupmode="layer"
     id="layer1"
     transform="translate(162.2934,86.843878)">
    <path
       style="fill:#cccccc;stroke:#000000;stroke-width:2;stroke-linecap:square"
       d="m -67.732192,15.047477 c 9.9949,-35.342341 34.544214,-66.32962 66.6627322,-84.144779 27.8710058,-15.459194 61.4892708,-20.94652 92.4467418,-13.369276 23.105138,5.655284 44.047988,18.19112 62.519128,33.179333 18.47115,14.988213 34.73556,32.466447 51.31213,49.52654554 11.5374,11.87393146 23.36924,23.71679846 31.96415,37.86703746 8.59491,14.15024 13.76017,31.111204 10.62553,47.367765 -2.19736,11.395735 -8.33176,21.752017 -16.0231,30.443077 -7.69134,8.69106 -16.92371,15.86614 -26.26644,22.75124 -30.7767,22.68078 -64.20004,43.15515 -101.46783,51.6836 -25.344154,5.79981 -52.11161,5.8332 -77.224174,-0.89904 C -13.656195,178.6029 -48.915276,149.668 -67.454611,112.09047 l -92.656589,78.00174 c 15.93109,-44.70066 24.26417,-92.098479 24.53493,-139.552406 0.25078,-43.953469 -6.40628,-87.939458 -19.65219,-129.850269 z"
       id="path838"
       sodipodi:nodetypes="csssssscccscc"
       inkscape:original-d="m -67.732192,15.047477 c 0,0 44.443233,-56.094954 66.6627322,-84.144779 22.2194928,-28.049827 61.6324658,-8.911284 92.4467418,-13.369276 30.814178,-4.457918 86.293368,47.49326 113.831258,82.70587854 27.53797,35.21254346 17.98995,64.47024846 42.58968,85.23480246 24.59964,20.764557 -31.74167,26.418967 -42.28954,53.194317 -10.54788,26.77534 -64.09392,43.50273 -101.46783,51.6836 -37.373961,8.18084 -51.481395,-0.59774 -77.224174,-0.89904 -25.7427062,-0.30107 -94.271287,-77.36251 -94.271287,-77.36251 l -92.656589,78.00174 c 0,0 16.35801,-93.03338 24.53493,-139.552406 8.17692,-46.5189697 -19.65219,-129.850269 -19.65219,-129.850269 z"
       inkscape:path-effect="#path-effect840" />
    <g
       id="g844"
       transform="matrix(1.42719,0,0,1.42719,-24.753091,16.206631)"
       style="stroke-width:0.700678">
      <rect
         style="fill:#ff8080;stroke:none;stroke-width:1.40136;stroke-linecap:square"
         id="rect838"
         width="24.304211"
         height="77.271988"
         x="44.607754"
         y="-48.61203" />
      <rect
         style="fill:#ff8080;stroke:none;stroke-width:1.40136;stroke-linecap:square"
         id="rect840"
         width="24.304211"
         height="77.271988"
         x="-22.128141"
         y="-95.395851"
         transform="rotate(90)" />
    </g>
    <g
       id="g850"
       transform="matrix(0.57366654,-0.57366654,0.57366654,0.57366654,157.69636,126.85448)"
       style="fill:#000000;stroke-width:1.23261">
      <g
         id="g856"
         transform="translate(30.405642,-76.991138)">
        <rect
           style="fill:#000000;stroke:none;stroke-width:2.46522;stroke-linecap:square"
           id="rect848"
           width="8.1722412"
           height="76.041267"
           x="-5.9961715"
           y="-94.165131"
           transform="rotate(90)" />
        <rect
           style="fill:#000000;stroke:none;stroke-width:2.46522;stroke-linecap:square"
           id="rect852"
           width="8.1722412"
           height="76.041267"
           x="-60.230618"
           y="-36.110584"
           transform="scale(-1)" />
      </g>
      <path
         style="fill:#ff8080;stroke:#000000;stroke-width:2.46522;stroke-linecap:square"
         inkscape:path-effect="#path-effect860"
         inkscape:original-d="m -29.594919,-34.870061 c 0,0 -9.191239,6.570384 -13.786858,9.854885 -4.595619,3.2845 -4.66903,3.495552 -7.003545,5.242636 -2.334514,1.747084 -0.726774,8.800956 -1.090161,13.2007418 -0.363388,4.3997861 7.281196,4.0168072 10.921794,6.02451902 3.640598,2.00771178 6.912859,-1.78146172 10.369288,-2.67288442 3.456429,-0.8914226 12.600812,-8.2107754 18.901219,-12.3168544"
         d="m -29.594919,-34.870061 c -4.335686,3.629695 -8.949198,6.927446 -13.786858,9.854885 -2.507811,1.517565 -5.134521,2.984568 -7.003545,5.242636 -1.499782,1.811966 -2.435952,4.086212 -2.633758,6.43002 -0.197806,2.343809 0.345582,4.7465365 1.543597,6.7707218 1.10615,1.8689679 2.755118,3.4017148 4.667918,4.4302115 1.9128,1.0284968 4.082416,1.55727604 6.253876,1.59430752 3.598769,0.0613724 7.087872,-1.19395962 10.369288,-2.67288442 6.883118,-3.102202 13.28342,-7.2729164 18.901219,-12.3168544"
         id="path864" />
      <path
         style="fill:none;stroke:#000000;stroke-width:2.46522;stroke-linecap:square"
         inkscape:path-effect="#path-effect860"
         inkscape:original-d="M 8.8184353,46.56303 C -29.594919,-34.870522 4.1139062,20.081141 1.7616409,6.8395058 -0.59062276,-6.4021296 -29.594919,-34.870061 -29.594919,-34.870061"
         d="M 8.8184353,46.56303 C 9.1984018,33.026254 6.7807741,19.417144 1.7616409,6.8395058 -4.7611276,-9.5061498 -15.70478,-24.063072 -29.594919,-34.870061"
         id="path858" />
      <path
         style="fill:none;stroke:#000000;stroke-width:2.46522;stroke-linecap:square"
         d="m -189.09816,-115.83402 c 7.68469,-7.39909 15.10355,-15.07428 22.23746,-23.00576 4.41818,-4.91214 8.73942,-9.93509 13.63466,-14.37199 4.89525,-4.4369 10.42238,-8.30309 16.64773,-10.51545 10.72507,-3.81148 22.85135,-2.37555 33.25328,2.24553 10.401928,4.62109 19.24298,12.20553 26.912085,20.6162 7.936776,8.70422 14.84661,18.51578 19.032729,29.52634 4.186118,11.01056 5.520571,23.30919 2.410755,34.670748 -2.638403,9.639274 -8.32408,18.210227 -15.011373,25.636995 -6.687294,7.426768 -14.402242,13.840622 -21.877172,20.474037 -9.147644,8.117816 -17.971944,16.599981 -26.444954,25.4196374"
         id="path866"
         inkscape:path-effect="#path-effect868"
         inkscape:original-d="m -189.09816,-115.83402 c 7.41249,-7.80592 14.82497,-15.33671 22.23746,-23.00576 7.41248,-7.66905 21.51279,-15.70247 30.28239,-24.88744 8.76959,-9.18497 38.785706,14.35292 60.165365,22.86173 21.379659,8.50881 14.295655,42.79852 21.443484,64.197088 7.147826,21.398567 -25.64467,34.365777 -36.888545,46.111032 -11.243874,11.745254 -14.707404,14.315657 -26.444954,25.4196374"
         sodipodi:nodetypes="csssssc" />
      <path
         style="fill:none;stroke:#000000;stroke-width:2.46522;stroke-linecap:square"
         d="m -76.217842,-139.51016 -87.235138,87.235141"
         id="path870"
         inkscape:path-effect="#path-effect872"
         inkscape:original-d="m -76.217842,-139.51016 c -29.078378,29.07884 -87.235138,87.235141 -87.235138,87.235141" />
      <path
         style="fill:none;stroke:#000000;stroke-width:2.46522;stroke-linecap:square"
         d="m -118.77116,-82.062643 c 0.3892,-0.820127 0.96214,-1.552423 1.66455,-2.127494 0.78701,-0.644341 1.7787,-1.097766 2.79413,-1.038903 0.52623,0.0305 1.0401,0.197506 1.50167,0.452067 0.46157,0.254562 0.87231,0.595143 1.23459,0.978029 0.72456,0.76577 1.25273,1.691397 1.80454,2.589678 1.07349,1.747519 2.2614,3.424733 3.55362,5.017334"
         id="path874"
         inkscape:path-effect="#path-effect876"
         inkscape:original-d="m -118.77116,-82.062643 c 0.58582,-0.739675 1.1097,-1.417868 1.66455,-2.127494 0.55484,-0.709627 1.86275,-0.692139 2.79413,-1.038903 0.93138,-0.346761 3.46256,2.817124 4.5408,4.019774 1.07824,1.202649 1.93372,3.208535 3.55362,5.017334"
         sodipodi:nodetypes="csssc" />
    </g>
  </g>
</svg>
