<?xml version="1.0" encoding="UTF-8" standalone="no"?>
<svg
   xmlns:dc="http://purl.org/dc/elements/1.1/"
   xmlns:cc="http://creativecommons.org/ns#"
   xmlns:rdf="http://www.w3.org/1999/02/22-rdf-syntax-ns#"
   xmlns:svg="http://www.w3.org/2000/svg"
   xmlns="http://www.w3.org/2000/svg"
   xmlns:sodipodi="http://sodipodi.sourceforge.net/DTD/sodipodi-0.dtd"
   xmlns:inkscape="http://www.inkscape.org/namespaces/inkscape"
   width="140.02011mm"
   height="139.64388mm"
   viewBox="0 0 140.02011 139.64387"
   version="1.1"
   id="svg8"
   inkscape:version="1.0.2 (e86c870879, 2021-01-15, custom)"
   sodipodi:docname="seaurchin.svg"
   inkscape:export-filename="seaurchin.png"
   inkscape:export-xdpi="119.91"
   inkscape:export-ydpi="119.91">
  <defs
     id="defs2">
    <inkscape:path-effect
       effect="spiro"
       id="path-effect861"
       is_visible="true"
       lpeversion="1" />
    <inkscape:path-effect
       effect="spiro"
       id="path-effect857"
       is_visible="true"
       lpeversion="1" />
    <inkscape:path-effect
       effect="spiro"
       id="path-effect853"
       is_visible="true"
       lpeversion="1" />
    <inkscape:path-effect
       effect="spiro"
       id="path-effect849"
       is_visible="true"
       lpeversion="1" />
    <inkscape:path-effect
       effect="spiro"
       id="path-effect845"
       is_visible="true"
       lpeversion="1" />
    <inkscape:path-effect
       effect="spiro"
       id="path-effect846"
       is_visible="true"
       lpeversion="1" />
    <inkscape:path-effect
       effect="spiro"
       id="path-effect840"
       is_visible="true"
       lpeversion="1" />
    <inkscape:path-effect
       effect="spiro"
       id="path-effect847"
       is_visible="true"
       lpeversion="1" />
    <inkscape:path-effect
       effect="spiro"
       id="path-effect843"
       is_visible="true"
       lpeversion="1" />
    <inkscape:path-effect
       effect="spiro"
       id="path-effect835"
       is_visible="true"
       lpeversion="1" />
  </defs>
  <sodipodi:namedview
     id="base"
     pagecolor="#ffffff"
     bordercolor="#666666"
     borderopacity="1.0"
     inkscape:pageopacity="0.0"
     inkscape:pageshadow="2"
     inkscape:zoom="0.47064891"
     inkscape:cx="381.01487"
     inkscape:cy="94.882601"
     inkscape:document-units="mm"
     inkscape:current-layer="layer1"
     inkscape:document-rotation="0"
     showgrid="false"
     inkscape:window-width="1920"
     inkscape:window-height="1015"
     inkscape:window-x="320"
     inkscape:window-y="30"
     inkscape:window-maximized="1"
     inkscape:snap-global="false" />
  <metadata
     id="metadata5">
    <rdf:RDF>
      <cc:Work
         rdf:about="">
        <dc:format>image/svg+xml</dc:format>
        <dc:type
           rdf:resource="http://purl.org/dc/dcmitype/StillImage" />
        <dc:title></dc:title>
      </cc:Work>
    </rdf:RDF>
  </metadata>
  <g
     inkscape:label="Layer 1"
     inkscape:groupmode="layer"
     id="layer1"
     transform="translate(-31.773473,-101.85045)">
    <path
       sodipodi:type="star"
       style="fill:#d35f5f;stroke:#d35f5f;stroke-width:2;stroke-linecap:square"
       id="path841"
       sodipodi:sides="30"
       sodipodi:cx="101.78353"
       sodipodi:cy="171.67239"
       sodipodi:r1="69.890999"
       sodipodi:r2="30.812408"
       sodipodi:arg1="0.66182205"
       sodipodi:arg2="0.70895131"
       inkscape:flatsided="false"
       inkscape:rounded="0"
       inkscape:randomized="0"
       d="m 156.91871,214.62427 -31.74717,-22.89182 21.61213,33.41647 -26.29394,-28.99219 14.19219,37.17966 -19.69154,-33.82547 6.15197,39.31792 -12.22853,-37.1804 -2.15712,39.73779 -4.23106,-38.91037 -10.371939,38.42094 3.951318,-38.93977 -18.133446,35.42489 11.961006,-37.26731 -25.102437,30.88062 19.44794,-33.96611 -30.974331,24.98672 26.084906,-29.18041 -35.492497,18.00077 31.581836,-23.11939 -38.459472,10.22811 35.698489,-16.04795 -39.745583,2.00843 38.254947,-8.27513 -39.294622,-6.29903 39.139479,-0.14064 -37.126297,-14.3312 38.31343,7.99998 -33.335375,-21.73702 35.812898,15.79098 -28.087536,-28.19283 31.747172,22.89183 -21.612138,-33.41647 26.293941,28.99219 -14.192185,-37.17966 19.691539,33.82546 -6.151966,-39.31791 12.228523,37.1804 2.157124,-39.7378 4.231066,38.91037 10.37193,-38.42093 -3.95132,38.93977 18.13345,-35.4249 -11.96101,37.26732 25.10244,-30.88062 -19.44794,33.9661 30.97433,-24.98671 -26.0849,29.18041 35.49249,-18.00078 -31.58183,23.1194 38.45947,-10.22811 -35.69849,16.04794 39.74558,-2.00842 -38.25494,8.27512 39.29462,6.29904 -39.13948,0.14064 37.1263,14.3312 -38.31343,-7.99999 33.33537,21.73702 -35.8129,-15.79097 z"
       inkscape:transform-center-x="-0.51873859"
       inkscape:transform-center-y="-0.90015451" />
    <path
       style="fill:#ffeeaa;stroke:#d35f5f;stroke-width:2;stroke-linecap:square"
       d="m 77.235727,154.55331 c 1.097611,-0.93472 2.515464,-1.48612 3.956194,-1.53856 1.44073,-0.0524 2.894918,0.39442 4.05758,1.24687 1.265777,0.92805 2.148196,2.27945 2.934786,3.63766 0.78659,1.35822 1.517607,2.77052 2.578324,3.92739 1.916715,2.09047 4.883171,3.16592 7.694243,2.78946 -1.201938,1.6863 -2.851207,3.05068 -4.732868,3.91533 -1.88166,0.86465 -3.991158,1.22747 -6.053575,1.04119 -3.459127,-0.31244 -6.741395,-2.22167 -8.723086,-5.07405 -1.981692,-2.85239 -2.625721,-6.59454 -1.711598,-9.94529 z"
       id="path847"
       inkscape:path-effect="#path-effect849"
       inkscape:original-d="m 77.235727,154.55331 c 0,0 5.342835,-0.19414 8.013774,-0.29169 2.670939,-0.0976 3.675728,5.04369 5.51311,7.56505 1.837386,2.52138 7.694243,2.78946 7.694243,2.78946 0,0 -7.190641,3.30467 -10.786443,4.95652 -3.595803,1.65185 -10.434684,-15.01934 -10.434684,-15.01934 z" />
    <path
       style="fill:#ffeeaa;stroke:#d35f5f;stroke-width:2;stroke-linecap:square"
       d="m 125.22577,155.14717 c -1.09761,-0.93472 -2.51546,-1.48612 -3.95619,-1.53856 -1.44073,-0.0524 -2.89492,0.39442 -4.05758,1.24687 -1.26578,0.92805 -2.1482,2.27945 -2.93479,3.63766 -0.78659,1.35822 -1.5176,2.77052 -2.57832,3.92739 -1.91671,2.09047 -4.88317,3.16592 -7.69424,2.78946 1.20194,1.6863 2.85121,3.05068 4.73287,3.91533 1.88166,0.86465 3.99115,1.22747 6.05357,1.04119 3.45913,-0.31244 6.74139,-2.22167 8.72309,-5.07405 1.98169,-2.85239 2.62571,-6.59454 1.71159,-9.94529 z"
       id="path843"
       inkscape:path-effect="#path-effect845"
       inkscape:original-d="m 125.22577,155.14717 c 0,0 -5.34283,-0.19414 -8.01377,-0.29169 -2.67094,-0.0976 -3.67573,5.04369 -5.51311,7.56505 -1.83738,2.52138 -7.69424,2.78946 -7.69424,2.78946 0,0 7.19064,3.30467 10.78644,4.95652 3.59581,1.65185 10.43468,-15.01934 10.43468,-15.01934 z" />
    <path
       style="fill:none;stroke:#000000;stroke-width:2;stroke-linecap:square"
       d="m 79.034022,149.07901 c 1.190761,-0.5588 2.538597,-0.77807 3.845081,-0.62552 1.306485,0.15255 2.567546,0.67644 3.597533,1.49455 1.708404,1.35697 2.691936,3.40333 3.643211,5.36677 0.951276,1.96344 1.991518,3.99471 3.762606,5.26878 1.425788,1.02567 3.261817,1.46309 4.996912,1.19048"
       id="path855"
       inkscape:path-effect="#path-effect857"
       inkscape:original-d="m 79.034022,149.07901 c 2.404055,0.28999 4.962063,0.57967 7.442614,0.86903 2.48055,0.28934 4.937532,7.09068 7.405817,10.63555 2.468287,3.54486 3.331595,0.79397 4.996912,1.19048" />
    <path
       style="fill:none;stroke:#000000;stroke-width:2;stroke-linecap:square"
       d="m 123.33643,149.13168 c -1.19076,-0.55881 -2.53859,-0.77808 -3.84508,-0.62553 -1.30648,0.15255 -2.56754,0.67644 -3.59753,1.49455 -1.70841,1.35697 -2.69194,3.40333 -3.64321,5.36677 -0.95128,1.96344 -1.99152,3.99471 -3.76261,5.26878 -1.42579,1.02567 -3.26182,1.46309 -4.99691,1.19048"
       id="path851"
       inkscape:path-effect="#path-effect853"
       inkscape:original-d="m 123.33643,149.13168 c -2.40405,0.28999 -4.96206,0.57966 -7.44261,0.86902 -2.48055,0.28935 -4.93753,7.09069 -7.40582,10.63555 -2.46829,3.54486 -3.33159,0.79397 -4.99691,1.19048" />
    <path
       style="fill:none;stroke:#000000;stroke-width:2;stroke-linecap:square"
       d="m 81.462707,184.02159 c 7.983829,-2.79883 16.956705,-2.67531 24.860463,0.34224 5.71476,2.18182 10.85807,5.84167 14.79224,10.5258"
       id="path859"
       inkscape:path-effect="#path-effect861"
       inkscape:original-d="m 81.462707,184.02159 c 8.199608,0.0721 16.573959,0.22849 24.860463,0.34224 8.2865,0.11379 9.86181,7.01752 14.79224,10.5258" />
  </g>
</svg>
